#First column=catenation number
#Second column=average integration time
#Third column=error associated with the average integration time

22	118828.0000	11998.2870
23	82326.5306	8099.9776
24	79020.4082	6538.9734
25	61663.2653	5544.3862
26	43354.0541	3527.6753
27	39924.1611	3472.2602
28	30928.3784	3008.9895
29	26760.0000	2240.1304
30	30223.9726	2377.7814
31	26248.9933	2110.3065
32	22916.7785	1820.5099
33	21510.8108	1580.2063
34	22846.0000	1818.8760
35	21344.2953	1785.4858
36	15924.1611	1378.3244
37	14331.0811	1290.0051
38	11201.3514	1037.1787